_________________________________________________________________
Layer (type)                 Output Shape              Param #   
=================================================================
conv2d_1 (Conv2D)            (None, 64, 64, 100)       2800      
_________________________________________________________________
max_pooling2d_1 (MaxPooling2 (None, 32, 32, 100)       0         
_________________________________________________________________
conv2d_2 (Conv2D)            (None, 32, 32, 200)       180200    
_________________________________________________________________
max_pooling2d_2 (MaxPooling2 (None, 16, 16, 200)       0         
_________________________________________________________________
conv2d_3 (Conv2D)            (None, 16, 16, 300)       540300    
_________________________________________________________________
max_pooling2d_3 (MaxPooling2 (None, 8, 8, 300)         0         
_________________________________________________________________
conv2d_4 (Conv2D)            (None, 8, 8, 400)         1080400   
_________________________________________________________________
max_pooling2d_4 (MaxPooling2 (None, 4, 4, 400)         0         
_________________________________________________________________
conv2d_5 (Conv2D)            (None, 4, 4, 500)         1800500   
_________________________________________________________________
max_pooling2d_5 (MaxPooling2 (None, 2, 2, 500)         0         
_________________________________________________________________
conv2d_6 (Conv2D)            (None, 2, 2, 600)         2700600   
_________________________________________________________________
max_pooling2d_6 (MaxPooling2 (None, 1, 1, 600)         0         
_________________________________________________________________
flatten_1 (Flatten)          (None, 600)               0         
_________________________________________________________________
dense_1 (Dense)              (None, 1)                 601       
=================================================================
Total params: 6,305,401
Trainable params: 6,305,401
Non-trainable params: 0
_________________________________________________________________
